{
  "project_info": {
    "project_number": "402215696693",
    "firebase_url": "https://pencere-mobil.firebaseio.com",
    "project_id": "pencere-mobil",
    "storage_bucket": "pencere-mobil.appspot.com"
  },
  "client": [
    {
      "client_info": {
        "mobilesdk_app_id": "1:402215696693:android:6b72afd7dab83394",
        "android_client_info": {
          "package_name": "com.solidict.pencere"
        }
      },
      "oauth_client": [
        {
          "client_id": "402215696693-a8c15ot15q0ncpq0j1ardmtqqhb316pg.apps.googleusercontent.com",
          "client_type": 3
        }
      ],
      "api_key": [
        {
          "current_key": "AIzaSyCNEbZwWh5ZTjCSr_W6C6uruC--5fp9g3w"
        }
      ],
      "services": {
        "analytics_service": {
          "status": 1
        },
        "appinvite_service": {
          "status": 1,
          "other_platform_oauth_client": []
        },
        "ads_service": {
          "status": 2
        }
      }
    }
  ],
  "configuration_version": "1"
}